{
    "Image_Build_IDs": {
        "adsp": "ADSP.HT.5.5-00832.1-LAHAINA-1", 
        "aop": "AOP.HO.3.0-00353-LAHAINA_E-1", 
        "apps": "LA.UM.9.14.r1-16700-LAHAINA.0-1", 
        "apps_LE": "LE.UM.4.3.1.r1-03900-genericarmv8-64.0-1", 
        "apps_qssi": "LA.QSSI.11.0.r1-12100-qssi.0-1", 
        "boot": "BOOT.MXF.1.0-00773-LAHAINA-1.420160.1", 
        "btfw_mp": "BTFW.MOSELLE.1.1.0-00355-MSL_PATCHZ-1", 
        "cdsp": "CDSP.HT.2.5-00805-LAHAINA-2", 
        "common": "Kodiak.LA.1.0.r1-00335-STD.PROD-1.420160.1", 
        "cpucp": "CPUCP.FW.1.0-00056-LAHAINA.EXT-1", 
        "glue": "GLUE.KODIAK_LA.1.0-00182-NOOP_TEST-1", 
        "modem": "MPSS.HI.4.3-01092.6-LC_ALL_PACK-1", 
        "tz": "TZ.XF.5.11-00398-SPF.LAHAINA-1", 
        "tz_apps": "TZ.APPS.2.0-00168-SPF.LAHAINA-1", 
        "wlan": "WLAN.MSL.1.0.1-00465-QCAMSLSWPLZ-1"
    }, 
    "Metabuild_Info": {
        "Meta_Build_ID": "Kodiak.LA.1.0.r1-00335-STD.PROD-1.420160.1", 
        "Product_Flavor": "asic", 
        "Time_Stamp": "2022-12-13 04:16:34"
    }, 
    "Version": "1.0"
}